<svg width="18" height="19" viewBox="0 0 18 19" fill="none" xmlns="http://www.w3.org/2000/svg">
<path d="M10.2897 19C10.1184 19 9.95175 18.9444 9.81472 18.8417L6.64805 16.4667C6.54973 16.3929 6.46993 16.2973 6.41496 16.1874C6.36 16.0775 6.33139 15.9562 6.33139 15.8333V11.3842L0.777052 5.13554C0.38258 4.69053 0.125019 4.14106 0.0353235 3.55319C-0.0543719 2.96531 0.0276159 2.36404 0.271433 1.82164C0.515249 1.27924 0.91052 0.818788 1.40974 0.495635C1.90895 0.172483 2.49087 0.000375582 3.08555 0L14.3272 0C14.9218 0.000697499 15.5036 0.173089 16.0026 0.49646C16.5017 0.81983 16.8967 1.28042 17.1402 1.82288C17.3838 2.36534 17.4655 2.96659 17.3756 3.55438C17.2857 4.14217 17.0279 4.69149 16.6333 5.13633L11.0814 11.3842V18.2083C11.0814 18.4183 10.998 18.6197 10.8495 18.7681C10.701 18.9166 10.4997 19 10.2897 19ZM7.91472 15.4375L9.49805 16.625V11.0833C9.49821 10.8895 9.56948 10.7025 9.69834 10.5577L15.4522 4.08421C15.644 3.86736 15.7692 3.59974 15.8127 3.31348C15.8562 3.02723 15.8162 2.7345 15.6974 2.47044C15.5786 2.20638 15.3862 1.98222 15.1431 1.82486C14.9001 1.6675 14.6168 1.58364 14.3272 1.58333H3.08555C2.79616 1.58377 2.51304 1.66768 2.27014 1.825C2.02724 1.98232 1.83488 2.20637 1.71613 2.47028C1.59738 2.73418 1.55728 3.02675 1.60064 3.31287C1.644 3.599 1.76898 3.86654 1.96059 4.08342L7.71522 10.5577C7.8438 10.7026 7.91478 10.8896 7.91472 11.0833V15.4375Z" fill="#00D2DC"/>
</svg>
