<svg width="19" height="19" viewBox="0 0 19 19" fill="none" xmlns="http://www.w3.org/2000/svg">
<g clip-path="url(#clip0_1318_3023)">
<path d="M5.54167 0H3.16667C2.32681 0 1.52136 0.33363 0.927495 0.927495C0.33363 1.52136 0 2.32681 0 3.16667L0 5.54167C0 6.38152 0.33363 7.18697 0.927495 7.78084C1.52136 8.3747 2.32681 8.70833 3.16667 8.70833H5.54167C6.38152 8.70833 7.18697 8.3747 7.78084 7.78084C8.3747 7.18697 8.70833 6.38152 8.70833 5.54167V3.16667C8.70833 2.32681 8.3747 1.52136 7.78084 0.927495C7.18697 0.33363 6.38152 0 5.54167 0ZM7.125 5.54167C7.125 5.96159 6.95819 6.36432 6.66125 6.66125C6.36432 6.95819 5.96159 7.125 5.54167 7.125H3.16667C2.74674 7.125 2.34401 6.95819 2.04708 6.66125C1.75015 6.36432 1.58333 5.96159 1.58333 5.54167V3.16667C1.58333 2.74674 1.75015 2.34401 2.04708 2.04708C2.34401 1.75015 2.74674 1.58333 3.16667 1.58333H5.54167C5.96159 1.58333 6.36432 1.75015 6.66125 2.04708C6.95819 2.34401 7.125 2.74674 7.125 3.16667V5.54167Z" fill="#00D2DC"/>
<path d="M15.8333 0H13.4583C12.6184 0 11.813 0.33363 11.2191 0.927495C10.6253 1.52136 10.2916 2.32681 10.2916 3.16667V5.54167C10.2916 6.38152 10.6253 7.18697 11.2191 7.78084C11.813 8.3747 12.6184 8.70833 13.4583 8.70833H15.8333C16.6731 8.70833 17.4786 8.3747 18.0725 7.78084C18.6663 7.18697 19 6.38152 19 5.54167V3.16667C19 2.32681 18.6663 1.52136 18.0725 0.927495C17.4786 0.33363 16.6731 0 15.8333 0ZM17.4166 5.54167C17.4166 5.96159 17.2498 6.36432 16.9529 6.66125C16.6559 6.95819 16.2532 7.125 15.8333 7.125H13.4583C13.0384 7.125 12.6356 6.95819 12.3387 6.66125C12.0418 6.36432 11.875 5.96159 11.875 5.54167V3.16667C11.875 2.74674 12.0418 2.34401 12.3387 2.04708C12.6356 1.75015 13.0384 1.58333 13.4583 1.58333H15.8333C16.2532 1.58333 16.6559 1.75015 16.9529 2.04708C17.2498 2.34401 17.4166 2.74674 17.4166 3.16667V5.54167Z" fill="#00D2DC"/>
<path d="M5.54167 10.2915H3.16667C2.32681 10.2915 1.52136 10.6251 0.927495 11.219C0.33363 11.8129 0 12.6183 0 13.4582L0 15.8332C0 16.673 0.33363 17.4785 0.927495 18.0723C1.52136 18.6662 2.32681 18.9998 3.16667 18.9998H5.54167C6.38152 18.9998 7.18697 18.6662 7.78084 18.0723C8.3747 17.4785 8.70833 16.673 8.70833 15.8332V13.4582C8.70833 12.6183 8.3747 11.8129 7.78084 11.219C7.18697 10.6251 6.38152 10.2915 5.54167 10.2915ZM7.125 15.8332C7.125 16.2531 6.95819 16.6558 6.66125 16.9528C6.36432 17.2497 5.96159 17.4165 5.54167 17.4165H3.16667C2.74674 17.4165 2.34401 17.2497 2.04708 16.9528C1.75015 16.6558 1.58333 16.2531 1.58333 15.8332V13.4582C1.58333 13.0382 1.75015 12.6355 2.04708 12.3386C2.34401 12.0417 2.74674 11.8748 3.16667 11.8748H5.54167C5.96159 11.8748 6.36432 12.0417 6.66125 12.3386C6.95819 12.6355 7.125 13.0382 7.125 13.4582V15.8332Z" fill="#00D2DC"/>
<path d="M15.8333 10.2915H13.4583C12.6184 10.2915 11.813 10.6251 11.2191 11.219C10.6253 11.8129 10.2916 12.6183 10.2916 13.4582V15.8332C10.2916 16.673 10.6253 17.4785 11.2191 18.0723C11.813 18.6662 12.6184 18.9998 13.4583 18.9998H15.8333C16.6731 18.9998 17.4786 18.6662 18.0725 18.0723C18.6663 17.4785 19 16.673 19 15.8332V13.4582C19 12.6183 18.6663 11.8129 18.0725 11.219C17.4786 10.6251 16.6731 10.2915 15.8333 10.2915ZM17.4166 15.8332C17.4166 16.2531 17.2498 16.6558 16.9529 16.9528C16.6559 17.2497 16.2532 17.4165 15.8333 17.4165H13.4583C13.0384 17.4165 12.6356 17.2497 12.3387 16.9528C12.0418 16.6558 11.875 16.2531 11.875 15.8332V13.4582C11.875 13.0382 12.0418 12.6355 12.3387 12.3386C12.6356 12.0417 13.0384 11.8748 13.4583 11.8748H15.8333C16.2532 11.8748 16.6559 12.0417 16.9529 12.3386C17.2498 12.6355 17.4166 13.0382 17.4166 13.4582V15.8332Z" fill="#00D2DC"/>
</g>
<defs>
<clipPath id="clip0_1318_3023">
<rect width="19" height="19" fill="white"/>
</clipPath>
</defs>
</svg>
